PFAS and Cancer Incidence
…
library(readxl)

# US states cancer incidence dataset
fifitystates_df = read_excel("Excel_50 states.xlsx") %>%
  janitor::clean_names()
fifitystates_df

## # A tibble: 52 × 11
##    state    year ir    male_ir female_ir white_ir black_ir alan_ir api_ir his_ir
##    <chr>   <dbl> <chr> <chr>   <chr>     <chr>    <chr>    <chr>   <chr>  <chr> 
##  1 alabama  2021 422   464.9   393.8     418.7    431.8    90.3    243.1  230.4 
##  2 alaska   2021 423   453.5   403.1     416      362.8    591.29… 251.9  297.5 
##  3 arizona  2021 368   383.6   359.6     379.7    334.9    269.3   212.5  314.2 
##  4 arkans…  2021 430   450.5   420.4     433.6    436.8    169.8   264.7  327.7 
##  5 califo…  2021 397   416.1   389.4     436.6    415.8    392.6   305.2  328.1 
##  6 colora…  2021 381   385     386.8     385.2    385.7    367.5   288.6… 348.5 
##  7 connec…  2021 49    531.9   474.2     502.8    502.7    408.4   278.8  440.7 
##  8 delawa…  2021 445   467.3   432.9     458.4    436.1    N/A     220.8  326.2 
##  9 distri…  2021 430   455.9   420.6     365.7    487      N/A     208.3  312.7 
## 10 florida  2021 465   495.4   446.4     497.9    423.5    367.9   270.1… 383.7 
## # ℹ 42 more rows
## # ℹ 1 more variable: state_zipcode <chr>

# US zipcode dataset
zipcode_df = read_excel ("US_FIPS_Codes.xls") %>%
  janitor::clean_names()
zipcode_df

## # A tibble: 3,142 × 4
##    state   county_name state_zipcode fips_county
##    <chr>   <chr>       <chr>         <chr>      
##  1 Alabama Autauga     01            001        
##  2 Alabama Baldwin     01            003        
##  3 Alabama Barbour     01            005        
##  4 Alabama Bibb        01            007        
##  5 Alabama Blount      01            009        
##  6 Alabama Bullock     01            011        
##  7 Alabama Butler      01            013        
##  8 Alabama Calhoun     01            015        
##  9 Alabama Chambers    01            017        
## 10 Alabama Cherokee    01            019        
## # ℹ 3,132 more rows
…
## Rows: 2038 Columns: 36
## ── Column specification ────────────────────────────────────────────────────────
## Delimiter: ","
## chr  (9): County, detected, med_gMRL_PFBS, med_gMRL_PFHpA, med_gMRL_PFHxS, m...
## dbl (27): n_geMRL, n_samples, MRL_ngl_PFBS, MRL_ngl_PFHpA, MRL_ngl_PFHxS, MR...
## 
## ℹ Use `spec()` to retrieve the full column specification for this data.
## ℹ Specify the column types or set `show_col_types = FALSE` to quiet this message.

pfas_df

## # A tibble: 2,038 × 37
##    county n_ge_mrl n_samples detected med_g_mrl_pfbs med_g_mrl_pf_hp_a
##    <chr>     <dbl>     <dbl> <chr>    <chr>          <chr>            
##  1 01001         3       318 Yes      No             No               
##  2 01003         0       732 No       No             No               
##  3 01007         0        48 No       No             No               
##  4 01009        34       480 Yes      No             No               
##  5 01013         0        48 No       No             No               
##  6 01015         0       240 No       No             No               
##  7 01017         0        96 No       No             No               
##  8 01019        96       984 Yes      No             No               
##  9 01021         2       132 Yes      No             No               
## 10 01027         0        96 No       No             No               
## # ℹ 2,028 more rows
## # ℹ 31 more variables: med_g_mrl_pf_hx_s <chr>, med_g_mrl_pfna <chr>,
## #   med_g_mrl_pfoa <chr>, med_g_mrl_pfos <chr>, mrl_ngl_pfbs <dbl>,
## #   mrl_ngl_pf_hp_a <dbl>, mrl_ngl_pf_hx_s <dbl>, mrl_ngl_pfna <dbl>,
## #   mrl_ngl_pfoa <dbl>, mrl_ngl_pfos <dbl>, median_pfbs <dbl>,
## #   median_pf_hp_a <dbl>, median_pf_hx_s <dbl>, median_pfna <dbl>,
## #   median_pfoa <dbl>, median_pfos <dbl>, q1_pfbs <dbl>, q1_pf_hp_a <dbl>, …
…
print(state_medians)

## # A tibble: 52 × 7
##    state       median_pfbs median_pf_hp_a median_pf_hx_s median_pfna median_pfoa
##    <chr>             <dbl>          <dbl>          <dbl>       <dbl>       <dbl>
##  1 Kentucy            63.6           7.07           21.2        14.1        14.1
##  2 alabama            63.6           7.07           21.2        14.1        14.1
##  3 alaska             63.6           7.07           21.2        14.1        14.1
##  4 arizona            63.6           7.07           21.2        14.1        14.1
##  5 arkansas           63.6           7.07           21.2        14.1        14.1
##  6 california         63.6           7.07           21.2        14.1        14.1
##  7 colorado           63.6           7.07           21.2        14.1        14.1
##  8 connecticut        63.6           7.07           21.2        14.1        14.1
##  9 delaware           63.6           7.07           21.2        14.1        14.1
## 10 district o…        63.6           7.07           21.2        14.1        14.1
## # ℹ 42 more rows
## # ℹ 1 more variable: median_pfos <dbl>

Method 2 - binerization If one county has detected/median, call this
state as detected/exposed A state can only be called non detected when
all counties are non-detected

state_detection_status =
  merged_df_1 %>%
  group_by(state) %>%
  summarise(detection_status = ifelse(any(detected == "Yes"), "Detected", "Not Detected"))

# View the result
print(state_detection_status)

## # A tibble: 52 × 2
##    state                detection_status
##    <chr>                <chr>           
##  1 Kentucy              Detected        
##  2 alabama              Detected        
##  3 alaska               Not Detected    
##  4 arizona              Detected        
##  5 arkansas             Not Detected    
##  6 california           Detected        
##  7 colorado             Detected        
##  8 connecticut          Not Detected    
##  9 delaware             Detected        
## 10 district of columbia Not Detected    
## # ℹ 42 more rows
…
# 75%
state_detection_method3_seventyfive =
  state_detection_counts %>%
  mutate(
    detection_proportion = yes_detected / total_samples,
    pollution_category = case_when(
      detection_proportion > 0.75 ~ "Highly Polluted",
      detection_proportion > 0 & detection_proportion <= 0.75 ~ "Moderately Polluted",
      detection_proportion == 0 ~ "Not Polluted at All"
    )
  )

state_detection_method3_seventyfive 

## # A tibble: 52 × 6
##    state         yes_detected no_not_detected total_samples detection_proportion
##    <chr>                <int>           <int>         <int>                <dbl>
##  1 Kentucy                 14              94           108               0.130 
##  2 alabama                 19              37            56               0.339 
##  3 alaska                   0               5             5               0     
##  4 arizona                  4               9            13               0.308 
##  5 arkansas                 0              42            42               0     
##  6 california              12              36            48               0.25  
##  7 colorado                 2              32            34               0.0588
##  8 connecticut              0               8             8               0     
##  9 delaware                 1               2             3               0.333 
## 10 district of …            0               1             1               0     
## # ℹ 42 more rows
## # ℹ 1 more variable: pollution_category <chr>
…
# 60%
state_detection_method3_sixty =
  state_detection_counts %>%
  mutate(
    detection_proportion = yes_detected / total_samples,
    pollution_category = case_when(
      detection_proportion > 0.60 ~ "Highly Polluted",
      detection_proportion > 0 & detection_proportion <= 0.60 ~ "Moderately Polluted",
      detection_proportion == 0 ~ "Not Polluted at All"
    )
  )

state_detection_method3_sixty 

## # A tibble: 52 × 6
##    state         yes_detected no_not_detected total_samples detection_proportion
##    <chr>                <int>           <int>         <int>                <dbl>
##  1 Kentucy                 14              94           108               0.130 
##  2 alabama                 19              37            56               0.339 
##  3 alaska                   0               5             5               0     
##  4 arizona                  4               9            13               0.308 
##  5 arkansas                 0              42            42               0     
##  6 california              12              36            48               0.25  
##  7 colorado                 2              32            34               0.0588
##  8 connecticut              0               8             8               0     
##  9 delaware                 1               2             3               0.333 
## 10 district of …            0               1             1               0     
## # ℹ 42 more rows
## # ℹ 1 more variable: pollution_category <chr>
…
# 90%
state_detection_method3_ninty =
  state_detection_counts %>%
  mutate(
    detection_proportion = yes_detected / total_samples,
    pollution_category_ninty = case_when(
      detection_proportion > 0.90 ~ "Highly Polluted",
      detection_proportion > 0 & detection_proportion <= 0.90 ~ "Moderately Polluted",
      detection_proportion == 0 ~ "Not Polluted at All"
    )
  )

state_detection_method3_ninty 

## # A tibble: 52 × 6
##    state         yes_detected no_not_detected total_samples detection_proportion
##    <chr>                <int>           <int>         <int>                <dbl>
##  1 Kentucy                 14              94           108               0.130 
##  2 alabama                 19              37            56               0.339 
##  3 alaska                   0               5             5               0     
##  4 arizona                  4               9            13               0.308 
##  5 arkansas                 0              42            42               0     
##  6 california              12              36            48               0.25  
##  7 colorado                 2              32            34               0.0588
##  8 connecticut              0               8             8               0     
##  9 delaware                 1               2             3               0.333 
## 10 district of …            0               1             1               0     
## # ℹ 42 more rows
## # ℹ 1 more variable: pollution_category_ninty <chr>
…
# 80%
state_detection_method3_eighty =
  state_detection_counts %>%
  mutate(
    detection_proportion = yes_detected / total_samples,
    pollution_category = case_when(
      detection_proportion > 0.80 ~ "Highly Polluted",
      detection_proportion > 0 & detection_proportion <= 0.80 ~ "Moderately Polluted",
      detection_proportion == 0 ~ "Not Polluted at All"
    )
  )

state_detection_method3_eighty 

## # A tibble: 52 × 6
##    state         yes_detected no_not_detected total_samples detection_proportion
##    <chr>                <int>           <int>         <int>                <dbl>
##  1 Kentucy                 14              94           108               0.130 
##  2 alabama                 19              37            56               0.339 
##  3 alaska                   0               5             5               0     
##  4 arizona                  4               9            13               0.308 
##  5 arkansas                 0              42            42               0     
##  6 california              12              36            48               0.25  
##  7 colorado                 2              32            34               0.0588
##  8 connecticut              0               8             8               0     
##  9 delaware                 1               2             3               0.333 
## 10 district of …            0               1             1               0     
## # ℹ 42 more rows
## # ℹ 1 more variable: pollution_category <chr>
…
# 50% threshold
state_detection_method3_fifty =
  state_detection_counts %>%
  mutate(
    detection_proportion = yes_detected / total_samples,
    pollution_category = case_when(
      detection_proportion > 0.50 ~ "Highly Polluted",
      detection_proportion > 0 & detection_proportion <= 0.50 ~ "Moderately Polluted",
      detection_proportion == 0 ~ "Not Polluted at All"
    )
  )

state_detection_method3_fifty 

## # A tibble: 52 × 6
##    state         yes_detected no_not_detected total_samples detection_proportion
##    <chr>                <int>           <int>         <int>                <dbl>
##  1 Kentucy                 14              94           108               0.130 
##  2 alabama                 19              37            56               0.339 
##  3 alaska                   0               5             5               0     
##  4 arizona                  4               9            13               0.308 
##  5 arkansas                 0              42            42               0     
##  6 california              12              36            48               0.25  
##  7 colorado                 2              32            34               0.0588
##  8 connecticut              0               8             8               0     
##  9 delaware                 1               2             3               0.333 
## 10 district of …            0               1             1               0     
## # ℹ 42 more rows
## # ℹ 1 more variable: pollution_category <chr>
…
# view results
state_detection_method3_thirty 

## # A tibble: 52 × 6
##    state         yes_detected no_not_detected total_samples detection_proportion
##    <chr>                <int>           <int>         <int>                <dbl>
##  1 Kentucy                 14              94           108               0.130 
##  2 alabama                 19              37            56               0.339 
##  3 alaska                   0               5             5               0     
##  4 arizona                  4               9            13               0.308 
##  5 arkansas                 0              42            42               0     
##  6 california              12              36            48               0.25  
##  7 colorado                 2              32            34               0.0588
##  8 connecticut              0               8             8               0     
##  9 delaware                 1               2             3               0.333 
## 10 district of …            0               1             1               0     
## # ℹ 42 more rows
## # ℹ 1 more variable: pollution_category <chr>
…
